…
```{r}
get_locs(watina,
         mask = westfl,
         buffer = 0)
#> As a mask always invokes a collect(), the argument 'collect = FALSE' will be ignored.
#> Warning in get_locs(watina, mask = westfl, buffer = 0): Dropped 34
#> locations from which x or y coordinates were missing.
#> # A tibble: 740 x 9
#>    loc_code area_code area_name     x      y loc_validitycode loc_validity
#>  * <chr>    <chr>     <chr>     <dbl>  <dbl> <chr>            <chr>       
#>  1 BELP009  BEL       de Belvé… 28145 199761 VLD              Gevalideerd 
#>  2 BELP010  BEL       de Belvé… 27947 199669 VLD              Gevalideerd 
#>  3 OSKP043  OSK       Oostends… 54040 210979 VLD              Gevalideerd 
#>  4 DHEP002  DHE       D' Heye   53635 216178 VLD              Gevalideerd 
#>  5 DHEP003  DHE       D' Heye   53596 215858 VLD              Gevalideerd 
#>  6 DHEP004  DHE       D' Heye   53841 216470 VLD              Gevalideerd 
#>  7 ZEBP032  ZEB       Zeebrugge 72142 218026 VLD              Gevalideerd 
#>  8 KEMP002  KEM       Kemmelbe… 39912 163431 VLD              Gevalideerd 
#>  9 KEMP003  KEM       Kemmelbe… 40561 163750 VLD              Gevalideerd 
#> 10 KEMP005  KEM       Kemmelbe… 39947 164778 VLD              Gevalideerd 
#> # … with 730 more rows, and 2 more variables: loc_typecode <chr>,
#> #   loc_typename <chr>
```
…
Instead of leaving the output as a `tbl_lazy` object, you can also retrieve it as a tibble (i.e. an easier-to-use type of dataframe) by setting `collect = TRUE`.

```{r}
get_locs(watina,
         area_codes = c("KAL", "KBR"),
         loc_type = c("P", "S"),
         loc_validity = c("VLD", "ENT"),
         collect = TRUE
         )
#> # A tibble: 223 x 9
#>    loc_code area_code area_name      x      y loc_validitycode loc_validity
#>    <chr>    <chr>     <chr>      <dbl>  <dbl> <chr>            <chr>       
#>  1 KBRP081  KBR       Potpolde… 145846 204871 VLD              Gevalideerd 
#>  2 KBRP090  KBR       Potpolde… 145988 204702 VLD              Gevalideerd 
#>  3 KBRP095  KBR       Potpolde… 145949 204712 VLD              Gevalideerd 
#>  4 KBRS001  KBR       Potpolde… 146937 205586 VLD              Gevalideerd 
#>  5 KALP030  KAL       Kalmthou… 152990 238600 VLD              Gevalideerd 
#>  6 KALP035  KAL       Kalmthou… 153000 236850 VLD              Gevalideerd 
#>  7 KALP039  KAL       Kalmthou… 160940 235060 VLD              Gevalideerd 
#>  8 KALP052  KAL       Kalmthou… 153822 233761 VLD              Gevalideerd 
#>  9 KALP053  KAL       Kalmthou… 153781 233736 VLD              Gevalideerd 
#> 10 KALP059  KAL       Kalmthou… 154754 232459 VLD              Gevalideerd 
#> # … with 213 more rows, and 2 more variables: loc_typecode <chr>,
#> #   loc_typename <chr>
```
…
