…
Retrieving the data locally:

```{r}
mylocs %>% get_chem(watina, "1/1/2017", collect = TRUE)
#> # A tibble: 493 x 10
#>    loc_code date       lab_project_id lab_sample_id chem_variable   value
#>    <chr>    <date>     <chr>          <chr>         <chr>           <dbl>
#>  1 ZWAP051  2018-10-29 0              40080         Al              0.05 
#>  2 ZWAP051  2018-10-29 0              40080         Ca             24.8  
#>  3 ZWAP051  2018-10-29 0              40080         Cl             36.7  
#>  4 ZWAP051  2018-10-29 0              40080         CondF         223    
#>  5 ZWAP051  2018-10-29 0              40080         CondL         224.   
#>  6 ZWAP051  2018-10-29 0              40080         Fe              0.782
#>  7 ZWAP051  2018-10-29 0              40080         HCO3            8.89 
#>  8 ZWAP051  2018-10-29 0              40080         K               1.68 
#>  9 ZWAP051  2018-10-29 0              40080         Mg              2.73 
#> 10 ZWAP051  2018-10-29 0              40080         Mn              0.149
#> # … with 483 more rows, and 4 more variables: units <chr>,
#> #   below_loq <lgl>, loq <dbl>, elneutr <dbl>
```
…
Joining results to `mylocs`:

```{r}
mylocs %>%
get_chem(watina, "1/1/2017") %>%
    left_join(mylocs %>%
                  select(-loc_wid),
              .) %>%
    collect
#> Joining, by = "loc_code"
#> # A tibble: 659 x 18
#>    loc_code area_code area_name      x      y loc_validitycode loc_validity
#>    <chr>    <chr>     <chr>      <dbl>  <dbl> <chr>            <chr>       
#>  1 ZWAP502  ZWA       Zwarte B… 222460 199240 VLD              Gevalideerd 
#>  2 ZWAP502  ZWA       Zwarte B… 222460 199240 VLD              Gevalideerd 
#>  3 ZWAP502  ZWA       Zwarte B… 222460 199240 VLD              Gevalideerd 
#>  4 ZWAP502  ZWA       Zwarte B… 222460 199240 VLD              Gevalideerd 
#>  5 ZWAP502  ZWA       Zwarte B… 222460 199240 VLD              Gevalideerd 
#>  6 ZWAP502  ZWA       Zwarte B… 222460 199240 VLD              Gevalideerd 
#>  7 ZWAP502  ZWA       Zwarte B… 222460 199240 VLD              Gevalideerd 
#>  8 ZWAP502  ZWA       Zwarte B… 222460 199240 VLD              Gevalideerd 
#>  9 ZWAP502  ZWA       Zwarte B… 222460 199240 VLD              Gevalideerd 
#> 10 ZWAP502  ZWA       Zwarte B… 222460 199240 VLD              Gevalideerd 
#> # … with 649 more rows, and 11 more variables: loc_typecode <chr>,
#> #   loc_typename <chr>, date <date>, lab_project_id <chr>,
#> #   lab_sample_id <chr>, chem_variable <chr>, value <dbl>, units <chr>,
#> #   below_loq <lgl>, loq <dbl>, elneutr <dbl>
```
…
