Getting started: connecting and selecting locations • watina
…
you can use a geospatial filter of class sf to make selections, by using the mask argument:

get_locs(watina,
         mask = westfl,
         buffer = 0)
#> As a mask always invokes a collect(), the argument 'collect = FALSE' will be ignored.
#> Warning in get_locs(watina, mask = westfl, buffer = 0): Dropped 40
#> locations from which x or y coordinates were missing.
#> # A tibble: 781 x 11
#>    loc_code area_code area_name     x      y loc_validitycode loc_validity
#>  * <chr>    <chr>     <chr>     <dbl>  <dbl> <chr>            <chr>       
#>  1 ASSP001  ASS       Assebroe… 74324 208838 VLD              Gevalideerd 
#>  2 ASSP002  ASS       Assebroe… 74526 208787 VLD              Gevalideerd 
#>  3 ASSP003  ASS       Assebroe… 74169 208790 VLD              Gevalideerd 
#>  4 ASSP004  ASS       Assebroe… 74108 208605 VLD              Gevalideerd 
#>  5 ASSP005  ASS       Assebroe… 73910 208646 VLD              Gevalideerd 
#>  6 ASSP006  ASS       Assebroe… 74033 208916 VLD              Gevalideerd 
#>  7 ASSP007  ASS       Assebroe… 73609 208954 VLD              Gevalideerd 
#>  8 ASSP008  ASS       Assebroe… 73948 209104 VLD              Gevalideerd 
#>  9 ASSP009  ASS       Assebroe… 73613 208584 VLD              Gevalideerd 
#> 10 ASSP010  ASS       Assebroe… 73583 208390 VLD              Gevalideerd 
#> # … with 771 more rows, and 4 more variables: loc_typecode <chr>,
#> #   loc_typename <chr>, filterdepth <dbl>, soilsurf_ost <dbl>

Note that the default value for buffer is 10 meters; it is used to enlarge mask (or shrink it, if buffer < 0).

Instead of leaving the output as a tbl_lazy object, you can also retrieve it as a tibble (i.e. an easier-to-use type of dataframe) by setting collect = TRUE.

get_locs(watina,
         area_codes = c("KAL", "KBR"),
         loc_type = c("P", "S"),
         collect = TRUE
         )
#> # A tibble: 223 x 11
#>    loc_code area_code area_name      x      y loc_validitycode loc_validity
#>    <chr>    <chr>     <chr>      <dbl>  <dbl> <chr>            <chr>       
#>  1 KBRP081  KBR       Potpolde… 145846 204871 VLD              Gevalideerd 
#>  2 KBRP090  KBR       Potpolde… 145988 204702 VLD              Gevalideerd 
#>  3 KBRP095  KBR       Potpolde… 145949 204712 VLD              Gevalideerd 
#>  4 KBRS001  KBR       Potpolde… 146937 205586 VLD              Gevalideerd 
#>  5 KALP030  KAL       Kalmthou… 152990 238600 VLD              Gevalideerd 
#>  6 KALP035  KAL       Kalmthou… 153000 236850 VLD              Gevalideerd 
#>  7 KALP039  KAL       Kalmthou… 160940 235060 VLD              Gevalideerd 
#>  8 KALP052  KAL       Kalmthou… 153822 233761 VLD              Gevalideerd 
#>  9 KALP053  KAL       Kalmthou… 153781 233736 VLD              Gevalideerd 
#> 10 KALP059  KAL       Kalmthou… 154754 232459 VLD              Gevalideerd 
#> # … with 213 more rows, and 4 more variables: loc_typecode <chr>,
#> #   loc_typename <chr>, filterdepth <dbl>, soilsurf_ost <dbl>
…
