Using XG3 values to characterize and select locations • watina
…
Retrieving the data locally:

mylocs %>% get_xg3(watina, 2010, collect = TRUE)
#> # A tibble: 46 x 5
#>    loc_code hydroyear lg3_lcl hg3_lcl vg3_lcl
#>    <chr>        <int>   <dbl>   <dbl>   <dbl>
#>  1 KALP022       2014  -0.948  -0.135  -0.473
#>  2 KALP022       2015  -1.05   -0.112  -0.340
#>  3 KALP022       2016  -1.07   -0.124  -0.269
#>  4 KALP022       2017  NA      NA      -0.326
#>  5 KALP079       2010  NA      NA      -0.873
#>  6 KALP079       2011  NA      NA      -0.747
#>  7 KALP079       2012  NA      NA      -0.773
#>  8 KALP079       2013  NA      NA      -0.64 
#>  9 KALP081       2010  NA      NA      -0.557
#> 10 KALP081       2013  NA      NA      -0.413
#> # … with 36 more rows
…
Joining results to mylocs:

mylocs %>%
  get_xg3(watina, 2010) %>%
  left_join(mylocs %>%
            select(-loc_wid),
            .) %>%
  collect
#> Joining, by = "loc_code"
#> # A tibble: 109 x 13
#>    loc_code area_code area_name      x      y loc_validitycode loc_validity
#>    <chr>    <chr>     <chr>      <dbl>  <dbl> <chr>            <chr>       
#>  1 KALP030  KAL       Kalmthou… 152990 238600 VLD              Gevalideerd 
#>  2 KALP035  KAL       Kalmthou… 153000 236850 VLD              Gevalideerd 
#>  3 KALP039  KAL       Kalmthou… 160940 235060 VLD              Gevalideerd 
#>  4 KALP052  KAL       Kalmthou… 153822 233761 VLD              Gevalideerd 
#>  5 KALP053  KAL       Kalmthou… 153781 233736 VLD              Gevalideerd 
#>  6 KALP059  KAL       Kalmthou… 154754 232459 VLD              Gevalideerd 
#>  7 KALP060  KAL       Kalmthou… 154702 232476 VLD              Gevalideerd 
#>  8 KALP061  KAL       Kalmthou… 154559 230477 VLD              Gevalideerd 
#>  9 KALP062  KAL       Kalmthou… 154553 230423 VLD              Gevalideerd 
#> 10 KALP063  KAL       Kalmthou… 154669 230340 VLD              Gevalideerd 
#> # … with 99 more rows, and 6 more variables: loc_typecode <chr>,
#> #   loc_typename <chr>, hydroyear <int>, lg3_lcl <dbl>, hg3_lcl <dbl>,
#> #   vg3_lcl <dbl>
…
