Using hydrochemical data to characterize and select locations • watina
…
Retrieving the data locally:

mylocs %>% get_chem(watina, "1/1/2017", collect = TRUE)
#> # A tibble: 608 x 10
#>    loc_code date       lab_project_id lab_sample_id chem_variable  value
#>    <chr>    <date>     <chr>          <chr>         <chr>          <dbl>
#>  1 ZWAP034  2018-10-29 0              40121         Al              0.05
#>  2 ZWAP034  2018-10-29 0              40121         Ca              4.24
#>  3 ZWAP034  2018-10-29 0              40121         Cl             14.4 
#>  4 ZWAP034  2018-10-29 0              40121         CondF         135   
#>  5 ZWAP034  2018-10-29 0              40121         CondL         120.  
#>  6 ZWAP034  2018-10-29 0              40121         Fe             19.9 
#>  7 ZWAP034  2018-10-29 0              40121         HCO3            5.97
#>  8 ZWAP034  2018-10-29 0              40121         K               1.98
#>  9 ZWAP034  2018-10-29 0              40121         Mg              1.36
#> 10 ZWAP034  2018-10-29 0              40121         Mn              0.05
#> # … with 598 more rows, and 4 more variables: units <chr>,
#> #   below_loq <lgl>, loq <dbl>, elneutr <dbl>
…
Joining results to mylocs:

mylocs %>%
get_chem(watina, "1/1/2017") %>%
    left_join(mylocs %>%
                  select(-loc_wid),
              .) %>%
    collect
#> Joining, by = "loc_code"
#> # A tibble: 765 x 20
#>    loc_code area_code area_name      x      y loc_validitycode loc_validity
#>    <chr>    <chr>     <chr>      <dbl>  <dbl> <chr>            <chr>       
#>  1 ZWAP141  ZWA       Zwarte B… 216785 198435 VLD              Gevalideerd 
#>  2 ZWAP141  ZWA       Zwarte B… 216785 198435 VLD              Gevalideerd 
#>  3 ZWAP141  ZWA       Zwarte B… 216785 198435 VLD              Gevalideerd 
#>  4 ZWAP141  ZWA       Zwarte B… 216785 198435 VLD              Gevalideerd 
#>  5 ZWAP141  ZWA       Zwarte B… 216785 198435 VLD              Gevalideerd 
#>  6 ZWAP141  ZWA       Zwarte B… 216785 198435 VLD              Gevalideerd 
#>  7 ZWAP141  ZWA       Zwarte B… 216785 198435 VLD              Gevalideerd 
#>  8 ZWAP141  ZWA       Zwarte B… 216785 198435 VLD              Gevalideerd 
#>  9 ZWAP141  ZWA       Zwarte B… 216785 198435 VLD              Gevalideerd 
#> 10 ZWAP141  ZWA       Zwarte B… 216785 198435 VLD              Gevalideerd 
#> # … with 755 more rows, and 13 more variables: loc_typecode <chr>,
#> #   loc_typename <chr>, filterdepth <dbl>, soilsurf_ost <dbl>,
#> #   date <date>, lab_project_id <chr>, lab_sample_id <chr>,
#> #   chem_variable <chr>, value <dbl>, units <chr>, below_loq <lgl>,
#> #   loq <dbl>, elneutr <dbl>
…
